NSCR Carpentries
…
fire_long1_df <- fire_wide1_df %>% 
  pivot_longer(cols = -animal_group_broad, names_to = "years", values_to = "counts") 

We will be honest: it is not always immediately clear what
the cols, names_to and values_to
options are. If you are really not sure, we recommend taking a
small sub-sample of the data (e.g., using sample_n()) and
testing things out. Theres no shame in this!

Now print the output to take a look.

fire_long1_df

## # A tibble: 72 x 3
##    animal_group_broad years counts
##    <fct>              <chr>  <int>
##  1 Bird               2009      89
##  2 Bird               2010      99
##  3 Bird               2011     120
##  4 Bird               2012     112
##  5 Bird               2013      85
##  6 Bird               2014     110
##  7 Bird               2015     106
##  8 Bird               2016     120
##  9 Bird               2017     124
## 10 Bird               2018     126
## # ... with 62 more rows
…
As we will discuss later, making graphics in R is also all about the
long data! This will become clear this afternoon.

4.3 Long to wide

Sometimes, we will need to pivot the other way round: from long to
wide. A common reason for this is to make a table for a paper or
presentation. Computers like long data, but humans sometimes find wide
format a bit more intuitive to read. Lets print out a long dataframe
example from the London Fire Service data.

fire_long2_df 

## # A tibble: 36 x 3
##    animal_group_broad property_type     counts
##    <fct>              <chr>              <dbl>
##  1 Bird               Dwelling              40
##  2 Bird               Non Residential       18
##  3 Bird               Other Residential      0
##  4 Bird               Outdoor               26
##  5 Bird               Outdoor Structure      5
##  6 Bird               Road Vehicle           0
##  7 Cat                Dwelling             171
##  8 Cat                Non Residential       20
##  9 Cat                Other Residential      2
## 10 Cat                Outdoor               58
## # ... with 26 more rows
…
4.4 Unite

Another useful tidying function is unite(). Fortunately,
its a lot easier to get your head around compared to pivots. This
function will simply pastes together the contents of columns. Lets
demonstrate this using the raw fire service data. We have two variables
property_type and property_category which
describe where the incident took place. We can preview these variables
by printing their unique values to the Console using
distinct().

distinct(fire_clean_df, property_type)

## # A tibble: 179 x 1
##    property_type                               
##    <chr>                                       
##  1 House - single occupancy                    
##  2 Railings                                    
##  3 Pipe or drain                               
##  4 Intensive Farming Sheds (chickens, pigs etc)
##  5 Park                                        
##  6 Lake/pond/reservoir                         
##  7 River/canal                                 
##  8 Tree scrub                                  
##  9 Car                                         
## 10 Other animal boarding/breeding establishment
## # ... with 169 more rows
…
